{
  "files": {
    "main.css": "/static/css/main.db80f4e7.chunk.css",
    "main.js": "/static/js/main.db82458d.chunk.js",
    "main.js.map": "/static/js/main.db82458d.chunk.js.map",
    "runtime-main.js": "/static/js/runtime-main.95499632.js",
    "runtime-main.js.map": "/static/js/runtime-main.95499632.js.map",
    "static/js/2.cb36a532.chunk.js": "/static/js/2.cb36a532.chunk.js",
    "static/js/2.cb36a532.chunk.js.map": "/static/js/2.cb36a532.chunk.js.map",
    "index.html": "/index.html",
    "precache-manifest.38b165598016a06f923c0a9183359481.js": "/precache-manifest.38b165598016a06f923c0a9183359481.js",
    "service-worker.js": "/service-worker.js",
    "static/css/main.db80f4e7.chunk.css.map": "/static/css/main.db80f4e7.chunk.css.map",
    "static/media/RegForm.css": "/static/media/background.8f06cb07.png"
  },
  "entrypoints": [
    "static/js/runtime-main.95499632.js",
    "static/js/2.cb36a532.chunk.js",
    "static/css/main.db80f4e7.chunk.css",
    "static/js/main.db82458d.chunk.js"
  ]
}