{
  "files": {
    "main.css": "/static/css/main.4b70a5ac.chunk.css",
    "main.js": "/static/js/main.353cb200.chunk.js",
    "main.js.map": "/static/js/main.353cb200.chunk.js.map",
    "runtime-main.js": "/static/js/runtime-main.95499632.js",
    "runtime-main.js.map": "/static/js/runtime-main.95499632.js.map",
    "static/js/2.3da63538.chunk.js": "/static/js/2.3da63538.chunk.js",
    "static/js/2.3da63538.chunk.js.map": "/static/js/2.3da63538.chunk.js.map",
    "index.html": "/index.html",
    "precache-manifest.43cfd64256256089ee3a48199aedfca4.js": "/precache-manifest.43cfd64256256089ee3a48199aedfca4.js",
    "service-worker.js": "/service-worker.js",
    "static/css/main.4b70a5ac.chunk.css.map": "/static/css/main.4b70a5ac.chunk.css.map",
    "static/media/RegForm.css": "/static/media/background.8f06cb07.png"
  },
  "entrypoints": [
    "static/js/runtime-main.95499632.js",
    "static/js/2.3da63538.chunk.js",
    "static/css/main.4b70a5ac.chunk.css",
    "static/js/main.353cb200.chunk.js"
  ]
}