{
  "files": {
    "main.css": "/static/css/main.82453189.chunk.css",
    "main.js": "/static/js/main.a610675c.chunk.js",
    "main.js.map": "/static/js/main.a610675c.chunk.js.map",
    "runtime-main.js": "/static/js/runtime-main.95499632.js",
    "runtime-main.js.map": "/static/js/runtime-main.95499632.js.map",
    "static/js/2.b8a3f4a4.chunk.js": "/static/js/2.b8a3f4a4.chunk.js",
    "static/js/2.b8a3f4a4.chunk.js.map": "/static/js/2.b8a3f4a4.chunk.js.map",
    "index.html": "/index.html",
    "precache-manifest.03fe32955ca67fb686efc67b14cc0de4.js": "/precache-manifest.03fe32955ca67fb686efc67b14cc0de4.js",
    "service-worker.js": "/service-worker.js",
    "static/css/main.82453189.chunk.css.map": "/static/css/main.82453189.chunk.css.map"
  },
  "entrypoints": [
    "static/js/runtime-main.95499632.js",
    "static/js/2.b8a3f4a4.chunk.js",
    "static/css/main.82453189.chunk.css",
    "static/js/main.a610675c.chunk.js"
  ]
}