{
  "files": {
    "main.css": "/static/css/main.a753e433.chunk.css",
    "main.js": "/static/js/main.45996ab1.chunk.js",
    "main.js.map": "/static/js/main.45996ab1.chunk.js.map",
    "runtime-main.js": "/static/js/runtime-main.95499632.js",
    "runtime-main.js.map": "/static/js/runtime-main.95499632.js.map",
    "static/js/2.bbcfc48a.chunk.js": "/static/js/2.bbcfc48a.chunk.js",
    "static/js/2.bbcfc48a.chunk.js.map": "/static/js/2.bbcfc48a.chunk.js.map",
    "index.html": "/index.html",
    "precache-manifest.1ed93bf92ce6090560fdeb4156901c6e.js": "/precache-manifest.1ed93bf92ce6090560fdeb4156901c6e.js",
    "service-worker.js": "/service-worker.js",
    "static/css/main.a753e433.chunk.css.map": "/static/css/main.a753e433.chunk.css.map",
    "static/media/RegForm.css": "/static/media/background.8f06cb07.png"
  },
  "entrypoints": [
    "static/js/runtime-main.95499632.js",
    "static/js/2.bbcfc48a.chunk.js",
    "static/css/main.a753e433.chunk.css",
    "static/js/main.45996ab1.chunk.js"
  ]
}